-- Merging decision tree log ---
manifest
ADDED from /Volumes/Work/Source/Projects/Library/ReactNative/react-native-bluetooth-info/android/src/main/AndroidManifest.xml:1:1-6:12
INJECTED from /Volumes/Work/Source/Projects/Library/ReactNative/react-native-bluetooth-info/android/src/main/AndroidManifest.xml:1:1-6:12
INJECTED from /Volumes/Work/Source/Projects/Library/ReactNative/react-native-bluetooth-info/android/src/main/AndroidManifest.xml:1:1-6:12
INJECTED from /Volumes/Work/Source/Projects/Library/ReactNative/react-native-bluetooth-info/android/src/main/AndroidManifest.xml:1:1-6:12
INJECTED from /Volumes/Work/Source/Projects/Library/ReactNative/react-native-bluetooth-info/android/src/main/AndroidManifest.xml:1:1-6:12
INJECTED from /Volumes/Work/Source/Projects/Library/ReactNative/react-native-bluetooth-info/android/src/main/AndroidManifest.xml:1:1-6:12
INJECTED from /Volumes/Work/Source/Projects/Library/ReactNative/react-native-bluetooth-info/android/src/main/AndroidManifest.xml:1:1-6:12
	package
		ADDED from /Volumes/Work/Source/Projects/Library/ReactNative/react-native-bluetooth-info/android/src/main/AndroidManifest.xml:2:11-44
		INJECTED from /Volumes/Work/Source/Projects/Library/ReactNative/react-native-bluetooth-info/android/src/main/AndroidManifest.xml
		INJECTED from /Volumes/Work/Source/Projects/Library/ReactNative/react-native-bluetooth-info/android/src/main/AndroidManifest.xml
	android:versionName
		INJECTED from /Volumes/Work/Source/Projects/Library/ReactNative/react-native-bluetooth-info/android/src/main/AndroidManifest.xml
		ADDED from /Volumes/Work/Source/Projects/Library/ReactNative/react-native-bluetooth-info/android/src/main/AndroidManifest.xml:1:1-6:12
		INJECTED from /Volumes/Work/Source/Projects/Library/ReactNative/react-native-bluetooth-info/android/src/main/AndroidManifest.xml
	android:versionCode
		INJECTED from /Volumes/Work/Source/Projects/Library/ReactNative/react-native-bluetooth-info/android/src/main/AndroidManifest.xml
		ADDED from /Volumes/Work/Source/Projects/Library/ReactNative/react-native-bluetooth-info/android/src/main/AndroidManifest.xml:1:1-6:12
		INJECTED from /Volumes/Work/Source/Projects/Library/ReactNative/react-native-bluetooth-info/android/src/main/AndroidManifest.xml
	xmlns:android
		ADDED from /Volumes/Work/Source/Projects/Library/ReactNative/react-native-bluetooth-info/android/src/main/AndroidManifest.xml:1:11-69
uses-permission#android.permission.BLUETOOTH
ADDED from /Volumes/Work/Source/Projects/Library/ReactNative/react-native-bluetooth-info/android/src/main/AndroidManifest.xml:3:5-67
	android:name
		ADDED from /Volumes/Work/Source/Projects/Library/ReactNative/react-native-bluetooth-info/android/src/main/AndroidManifest.xml:3:22-65
uses-permission#android.permission.BLUETOOTH_ADMIN
ADDED from /Volumes/Work/Source/Projects/Library/ReactNative/react-native-bluetooth-info/android/src/main/AndroidManifest.xml:4:5-73
	android:name
		ADDED from /Volumes/Work/Source/Projects/Library/ReactNative/react-native-bluetooth-info/android/src/main/AndroidManifest.xml:4:22-71
uses-sdk
INJECTED from /Volumes/Work/Source/Projects/Library/ReactNative/react-native-bluetooth-info/android/src/main/AndroidManifest.xml reason: use-sdk injection requested
INJECTED from /Volumes/Work/Source/Projects/Library/ReactNative/react-native-bluetooth-info/android/src/main/AndroidManifest.xml
INJECTED from /Volumes/Work/Source/Projects/Library/ReactNative/react-native-bluetooth-info/android/src/main/AndroidManifest.xml
INJECTED from /Volumes/Work/Source/Projects/Library/ReactNative/react-native-bluetooth-info/android/src/main/AndroidManifest.xml
INJECTED from /Volumes/Work/Source/Projects/Library/ReactNative/react-native-bluetooth-info/android/src/main/AndroidManifest.xml
	android:targetSdkVersion
		INJECTED from /Volumes/Work/Source/Projects/Library/ReactNative/react-native-bluetooth-info/android/src/main/AndroidManifest.xml
		ADDED from /Volumes/Work/Source/Projects/Library/ReactNative/react-native-bluetooth-info/android/src/main/AndroidManifest.xml
		INJECTED from /Volumes/Work/Source/Projects/Library/ReactNative/react-native-bluetooth-info/android/src/main/AndroidManifest.xml
	android:minSdkVersion
		INJECTED from /Volumes/Work/Source/Projects/Library/ReactNative/react-native-bluetooth-info/android/src/main/AndroidManifest.xml
		ADDED from /Volumes/Work/Source/Projects/Library/ReactNative/react-native-bluetooth-info/android/src/main/AndroidManifest.xml
		INJECTED from /Volumes/Work/Source/Projects/Library/ReactNative/react-native-bluetooth-info/android/src/main/AndroidManifest.xml
